\select@language {russian}
\contentsline {section}{\numberline {1.\relax }\IeC {\CYRV }\IeC {\cyrv }\IeC {\cyre }\IeC {\cyrd }\IeC {\cyre }\IeC {\cyrn }\IeC {\cyri }\IeC {\cyre }}{3}{section.1}
\contentsline {section}{\numberline {2.\relax }\IeC {\CYRA }\IeC {\cyrn }\IeC {\cyra }\IeC {\cyrl }\IeC {\cyri }\IeC {\cyrt }\IeC {\cyri }\IeC {\cyrch }\IeC {\cyre }\IeC {\cyrs }\IeC {\cyrk }\IeC {\cyri }\IeC {\cyrishrt } \IeC {\cyrr }\IeC {\cyra }\IeC {\cyrz }\IeC {\cyrd }\IeC {\cyre }\IeC {\cyrl }}{4}{section.2}
\contentsline {subsection}{\numberline {2.1.\relax }\IeC {\CYRD }\IeC {\cyro }\IeC {\cyrs }\IeC {\cyrt }\IeC {\cyro }\IeC {\cyri }\IeC {\cyrn }\IeC {\cyrs }\IeC {\cyrt }\IeC {\cyrv }\IeC {\cyra } \IeC {\cyri } \IeC {\cyrn }\IeC {\cyre }\IeC {\cyrd }\IeC {\cyro }\IeC {\cyrs }\IeC {\cyrt }\IeC {\cyra }\IeC {\cyrt }\IeC {\cyrk }\IeC {\cyri } \IeC {\cyru }\IeC {\cyrk }\IeC {\cyra }\IeC {\cyrz }\IeC {\cyra }\IeC {\cyrn }\IeC {\cyrn }\IeC {\cyrery }\IeC {\cyrh } \IeC {\cyrv } \IeC {\cyrz }\IeC {\cyra }\IeC {\cyrd }\IeC {\cyra }\IeC {\cyrn }\IeC {\cyri }\IeC {\cyri } \IeC {\cyrp }\IeC {\cyro }\IeC {\cyrd }\IeC {\cyrh }\IeC {\cyro }\IeC {\cyrd }\IeC {\cyro }\IeC {\cyrv } \IeC {\cyrk } \IeC {\cyrr }\IeC {\cyre }\IeC {\cyrsh }\IeC {\cyre }\IeC {\cyrn }\IeC {\cyri }\IeC {\cyryu } \IeC {\cyrz }\IeC {\cyra }\IeC {\cyrd }\IeC {\cyra }\IeC {\cyrch }\IeC {\cyri }}{4}{subsection.2.1}
\contentsline {subsection}{\numberline {2.2.\relax }\IeC {\CYRF }\IeC {\cyru }\IeC {\cyrn }\IeC {\cyrk }\IeC {\cyrc }\IeC {\cyri }\IeC {\cyrya } pselect()}{4}{subsection.2.2}
\contentsline {subsection}{\numberline {2.3.\relax }\IeC {\CYRS }\IeC {\cyru }\IeC {\cyrshch }\IeC {\cyrn }\IeC {\cyro }\IeC {\cyrs }\IeC {\cyrt }\IeC {\cyri } \IeC {\cyrp }\IeC {\cyrr }\IeC {\cyre }\IeC {\cyrd }\IeC {\cyrm }\IeC {\cyre }\IeC {\cyrt }\IeC {\cyrn }\IeC {\cyro }\IeC {\cyrishrt } \IeC {\cyro }\IeC {\cyrb }\IeC {\cyrl }\IeC {\cyra }\IeC {\cyrs }\IeC {\cyrt }\IeC {\cyri }}{5}{subsection.2.3}
\contentsline {section}{\numberline {3.\relax }\IeC {\CYRK }\IeC {\cyro }\IeC {\cyrn }\IeC {\cyrs }\IeC {\cyrt }\IeC {\cyrr }\IeC {\cyru }\IeC {\cyrk }\IeC {\cyrt }\IeC {\cyro }\IeC {\cyrr }\IeC {\cyrs }\IeC {\cyrk }\IeC {\cyri }\IeC {\cyrishrt } \IeC {\cyrr }\IeC {\cyra }\IeC {\cyrz }\IeC {\cyrd }\IeC {\cyre }\IeC {\cyrl }}{6}{section.3}
\contentsline {subsection}{\numberline {3.1.\relax }\IeC {\CYRK }\IeC {\cyro }\IeC {\cyrn }\IeC {\cyre }\IeC {\cyrch }\IeC {\cyrn }\IeC {\cyrery }\IeC {\cyrishrt } \IeC {\cyra }\IeC {\cyrv }\IeC {\cyrt }\IeC {\cyro }\IeC {\cyrm }\IeC {\cyra }\IeC {\cyrt } \IeC {\cyrs }\IeC {\cyro }\IeC {\cyrs }\IeC {\cyrt }\IeC {\cyro }\IeC {\cyrya }\IeC {\cyrn }\IeC {\cyri }\IeC {\cyrya } SMTP - \IeC {\cyrk }\IeC {\cyrl }\IeC {\cyri }\IeC {\cyre }\IeC {\cyrn }\IeC {\cyrt }\IeC {\cyra }}{6}{subsection.3.1}
\contentsline {subsection}{\numberline {3.2.\relax }\IeC {\CYRS }\IeC {\cyri }\IeC {\cyrn }\IeC {\cyrt }\IeC {\cyra }\IeC {\cyrk }\IeC {\cyrs }\IeC {\cyri }\IeC {\cyrs } \IeC {\cyrk }\IeC {\cyro }\IeC {\cyrm }\IeC {\cyra }\IeC {\cyrn }\IeC {\cyrd } \IeC {\cyrp }\IeC {\cyrr }\IeC {\cyro }\IeC {\cyrt }\IeC {\cyro }\IeC {\cyrk }\IeC {\cyro }\IeC {\cyrl }\IeC {\cyra }}{6}{subsection.3.2}
\contentsline {subsection}{\numberline {3.3.\relax }\IeC {\CYRR }\IeC {\cyre }\IeC {\cyrg }\IeC {\cyru }\IeC {\cyrl }\IeC {\cyrya }\IeC {\cyrr }\IeC {\cyrn }\IeC {\cyrery }\IeC {\cyre } \IeC {\cyrv }\IeC {\cyrery }\IeC {\cyrr }\IeC {\cyra }\IeC {\cyrzh }\IeC {\cyre }\IeC {\cyrn }\IeC {\cyri }\IeC {\cyrya }}{8}{subsection.3.3}
\contentsline {subsection}{\numberline {3.4.\relax }\IeC {\CYRV }\IeC {\cyro }\IeC {\cyrz }\IeC {\cyrv }\IeC {\cyrr }\IeC {\cyra }\IeC {\cyrshch }\IeC {\cyra }\IeC {\cyre }\IeC {\cyrm }\IeC {\cyrery }\IeC {\cyre } \IeC {\cyrk }\IeC {\cyro }\IeC {\cyrd }\IeC {\cyrery }}{8}{subsection.3.4}
\contentsline {subsection}{\numberline {3.5.\relax }\IeC {\CYRV }\IeC {\cyrery }\IeC {\cyrd }\IeC {\cyre }\IeC {\cyrl }\IeC {\cyre }\IeC {\cyrn }\IeC {\cyrn }\IeC {\cyrery }\IeC {\cyre } \IeC {\cyrp }\IeC {\cyro }\IeC {\cyrd }\IeC {\cyrs }\IeC {\cyri }\IeC {\cyrs }\IeC {\cyrt }\IeC {\cyre }\IeC {\cyrm }\IeC {\cyrery }}{9}{subsection.3.5}
\contentsline {subsection}{\numberline {3.6.\relax }\IeC {\CYRA }\IeC {\cyrl }\IeC {\cyrg }\IeC {\cyro }\IeC {\cyrr }\IeC {\cyri }\IeC {\cyrt }\IeC {\cyrm } \IeC {\cyrr }\IeC {\cyra }\IeC {\cyrb }\IeC {\cyro }\IeC {\cyrt }\IeC {\cyrery } SMTP - \IeC {\cyrs }\IeC {\cyre }\IeC {\cyrr }\IeC {\cyrv }\IeC {\cyre }\IeC {\cyrr }\IeC {\cyra }}{9}{subsection.3.6}
\contentsline {subsection}{\numberline {3.7.\relax }Inter Process Communications (IPC)}{9}{subsection.3.7}
\contentsline {subsection}{\numberline {3.8.\relax }\IeC {\CYRM }\IeC {\cyre }\IeC {\cyrh }\IeC {\cyra }\IeC {\cyrn }\IeC {\cyri }\IeC {\cyrz }\IeC {\cyrm } \IeC {\cyrh }\IeC {\cyrr }\IeC {\cyra }\IeC {\cyrn }\IeC {\cyre }\IeC {\cyrn }\IeC {\cyri }\IeC {\cyrya } \IeC {\cyrp }\IeC {\cyro }\IeC {\cyrch }\IeC {\cyrt }\IeC {\cyrery }}{9}{subsection.3.8}
\contentsline {subsection}{\numberline {3.9.\relax }\IeC {\CYRV }\IeC {\cyrh }\IeC {\cyro }\IeC {\cyrd }\IeC {\cyrn }\IeC {\cyrery }\IeC {\cyre } \IeC {\cyrd }\IeC {\cyra }\IeC {\cyrn }\IeC {\cyrn }\IeC {\cyrery }\IeC {\cyre } \IeC {\cyrd }\IeC {\cyrl }\IeC {\cyrya } SMTP - \IeC {\cyrs }\IeC {\cyre }\IeC {\cyrr }\IeC {\cyrv }\IeC {\cyre }\IeC {\cyrr }\IeC {\cyra }}{9}{subsection.3.9}
\contentsline {subsection}{\numberline {3.10.\relax }\IeC {\CYRV }\IeC {\cyrh }\IeC {\cyro }\IeC {\cyrd }\IeC {\cyrn }\IeC {\cyrery }\IeC {\cyre } \IeC {\cyrd }\IeC {\cyra }\IeC {\cyrn }\IeC {\cyrn }\IeC {\cyrery }\IeC {\cyre } \IeC {\cyrd }\IeC {\cyrl }\IeC {\cyrya } \IeC {\cyrp }\IeC {\cyrr }\IeC {\cyro }\IeC {\cyrc }\IeC {\cyre }\IeC {\cyrs }\IeC {\cyrs }\IeC {\cyra }, \IeC {\cyro }\IeC {\cyrs }\IeC {\cyru }\IeC {\cyrshch }\IeC {\cyre }\IeC {\cyrs }\IeC {\cyrt }\IeC {\cyrv }\IeC {\cyrl }\IeC {\cyrya }\IeC {\cyryu }\IeC {\cyrshch }\IeC {\cyre }\IeC {\cyrg }\IeC {\cyro } \IeC {\cyrzh }\IeC {\cyru }\IeC {\cyrr }\IeC {\cyrn }\IeC {\cyra }\IeC {\cyrl }\IeC {\cyri }\IeC {\cyrr }\IeC {\cyro }\IeC {\cyrv }\IeC {\cyra }\IeC {\cyrn }\IeC {\cyri }\IeC {\cyre }}{11}{subsection.3.10}
\contentsline {section}{\numberline {4.\relax }\IeC {\CYRT }\IeC {\cyre }\IeC {\cyrh }\IeC {\cyrn }\IeC {\cyro }\IeC {\cyrl }\IeC {\cyro }\IeC {\cyrg }\IeC {\cyri }\IeC {\cyrch }\IeC {\cyre }\IeC {\cyrs }\IeC {\cyrk }\IeC {\cyri }\IeC {\cyrishrt } \IeC {\cyrr }\IeC {\cyra }\IeC {\cyrz }\IeC {\cyrd }\IeC {\cyre }\IeC {\cyrl }}{12}{section.4}
\contentsline {subsection}{\numberline {4.1.\relax }\IeC {\CYRG }\IeC {\cyre }\IeC {\cyrn }\IeC {\cyre }\IeC {\cyrr }\IeC {\cyra }\IeC {\cyrc }\IeC {\cyri }\IeC {\cyrya } \IeC {\cyrk }\IeC {\cyro }\IeC {\cyrd }\IeC {\cyra } \IeC {\cyri } \IeC {\cyrs }\IeC {\cyrb }\IeC {\cyro }\IeC {\cyrr }\IeC {\cyrk }\IeC {\cyra }}{12}{subsection.4.1}
\contentsline {subsection}{\numberline {4.2.\relax }\IeC {\CYRM }\IeC {\cyro }\IeC {\cyrd }\IeC {\cyru }\IeC {\cyrl }\IeC {\cyrsftsn }\IeC {\cyrn }\IeC {\cyro }\IeC {\cyre } \IeC {\cyrt }\IeC {\cyre }\IeC {\cyrs }\IeC {\cyrt }\IeC {\cyri }\IeC {\cyrr }\IeC {\cyro }\IeC {\cyrv }\IeC {\cyra }\IeC {\cyrn }\IeC {\cyri }\IeC {\cyre }}{12}{subsection.4.2}
\contentsline {subsection}{\numberline {4.3.\relax }\IeC {\CYRS }\IeC {\cyri }\IeC {\cyrs }\IeC {\cyrt }\IeC {\cyre }\IeC {\cyrm }\IeC {\cyrn }\IeC {\cyro }\IeC {\cyre } \IeC {\cyrt }\IeC {\cyre }\IeC {\cyrs }\IeC {\cyrt }\IeC {\cyri }\IeC {\cyrr }\IeC {\cyro }\IeC {\cyrv }\IeC {\cyra }\IeC {\cyrn }\IeC {\cyri }\IeC {\cyre }}{12}{subsection.4.3}
\contentsline {subsection}{\numberline {4.4.\relax }\IeC {\CYRI }\IeC {\cyrt }\IeC {\cyro }\IeC {\cyrg }\IeC {\cyri } \IeC {\cyrt }\IeC {\cyre }\IeC {\cyrs }\IeC {\cyrt }\IeC {\cyri }\IeC {\cyrr }\IeC {\cyro }\IeC {\cyrv }\IeC {\cyra }\IeC {\cyrn }\IeC {\cyri }\IeC {\cyrya }}{12}{subsection.4.4}
\contentsline {section}{\numberline {5.\relax }\IeC {\CYRZ }\IeC {\cyra }\IeC {\cyrk }\IeC {\cyrl }\IeC {\cyryu }\IeC {\cyrch }\IeC {\cyre }\IeC {\cyrn }\IeC {\cyri }\IeC {\cyre }}{16}{section.5}
