I [16/Feb/2018:18:53:15 +0000] Logger started.
I [16/Feb/2018:18:53:16 +0000] Server started.
I [16/Feb/2018:18:53:16 +0000] Alarm() set on 3 seconds.
I [16/Feb/2018:18:53:17 +0000] New client on socket "6".
I [16/Feb/2018:18:53:17 +0000] EHLO command on socket "6" received
I [16/Feb/2018:18:53:17 +0000] Client's IP "127.0.0.1" on socket "6" doesn't match it's domain name "127.0.1.1"!
I [16/Feb/2018:18:53:17 +0000] MAIL command on socket "6" received
I [16/Feb/2018:18:53:17 +0000] Sender's email "transporter94@mail.ru" on socket "6" extracted.
I [16/Feb/2018:18:53:17 +0000] RCPT command on socket "6" received
I [16/Feb/2018:18:53:17 +0000] Recipient's email "zexp@yandex.ru" on socket "6" extracted.
I [16/Feb/2018:18:53:17 +0000] DATA command on socket "6" received
I [16/Feb/2018:18:53:17 +0000] Mail on socket "6" successfully received:
"ZiminServer_MESSAGE_ID: b1ce9110-d9c8-41ea-8337-3de3176f9c19
ZiminServer_FROM: transporter94@mail.ru
ZiminServer_TO: zexp@yandex.ru

From: <transporter94@mail.ru>
To: <zexp@yandex.ru>
Subject: System test message 1

Body of the message.
.
"
I [16/Feb/2018:18:53:17 +0000] MAIL command on socket "6" received
I [16/Feb/2018:18:53:17 +0000] Sender's email "transporter94@mail.ru" on socket "6" extracted.
I [16/Feb/2018:18:53:17 +0000] RCPT command on socket "6" received
I [16/Feb/2018:18:53:17 +0000] Recipient's email "zexp@yandex.ru" on socket "6" extracted.
I [16/Feb/2018:18:53:17 +0000] DATA command on socket "6" received
I [16/Feb/2018:18:53:17 +0000] Mail on socket "6" successfully received:
"ZiminServer_MESSAGE_ID: e00e2ec2-6897-42ca-9c7c-ddd9c730fbe9
ZiminServer_FROM: transporter94@mail.ru
ZiminServer_TO: zexp@yandex.ru

From: <transporter94@mail.ru>
To: <zexp@yandex.ru>
Subject: System test message 2

Body of the message 2.
.
"
I [16/Feb/2018:18:53:17 +0000] QUIT command on socket "6" received
I [16/Feb/2018:18:53:17 +0000] Connection with client on socket "6" closed.
I [16/Feb/2018:18:53:19 +0000] Process catched signal 14
I [16/Feb/2018:18:53:19 +0000] Function pselect() returned "-1". Server closing started.
I [16/Feb/2018:18:53:19 +0000] Server closed.
I [16/Feb/2018:18:53:25 +0000] Logger close command.
I [16/Feb/2018:18:53:25 +0000] Logger closed.
